{"catalogs":{"catalog":[{"path":[20,1,1,null,963],"name":"כל התאונות","pathDesc":null},{"path":[20,1,1,null,964],"name":"פגיעה בהולך רגל","pathDesc":null},{"path":[20,1,1,null,965],"name":"התנגשויות, סך הכל","pathDesc":null},{"path":[20,1,1,null,966],"name":"התנגשויות , אחור אל צד ,חזית","pathDesc":null},{"path":[20,1,1,null,967],"name":"התנגשויות ,בעצם דומם","pathDesc":null},{"path":[20,1,1,null,968],"name":"התנגשויות ,ברכב חונה","pathDesc":null},{"path":[20,1,1,null,969],"name":"התנגשויות ,חזית אל חזית","pathDesc":null},{"path":[20,1,1,null,970],"name":"התנגשויות ,חזית אל צד","pathDesc":null},{"path":[20,1,1,null,971],"name":"התנגשויות ,חזית באחור","pathDesc":null},{"path":[20,1,1,null,972],"name":"התנגשויות ,צד בצד","pathDesc":null},{"path":[20,1,1,null,973],"name":"ירידה מהכביש","pathDesc":null},{"path":[20,1,1,null,974],"name":"אחר ולא ידוע","pathDesc":null},{"path":[20,1,1,null,975],"name":"החלקה","pathDesc":null},{"path":[20,1,1,null,976],"name":"התהפכות","pathDesc":null},{"path":[20,1,1,null,977],"name":"נפילה מרכב נע","pathDesc":null},{"path":[20,1,1,null,978],"name":"פגיעה בנוסע ברכב","pathDesc":null},{"path":[20,1,1,null,979],"name":"זמן התאונה , יום","pathDesc":null},{"path":[20,1,1,null,980],"name":"זמן התאונה , לילה","pathDesc":null},{"path":[20,1,2,1,2],"name":"סך הכל","pathDesc":null},{"path":[20,1,2,1,981],"name":"קטלניות","pathDesc":null},{"path":[20,1,2,1,982],"name":"קשות","pathDesc":null},{"path":[20,1,2,1,983],"name":"קלות","pathDesc":null},{"path":[20,1,2,2,2],"name":"סך הכל","pathDesc":null},{"path":[20,1,2,2,981],"name":"קטלניות","pathDesc":null},{"path":[20,1,2,2,982],"name":"קשות","pathDesc":null},{"path":[20,1,2,2,983],"name":"קלות","pathDesc":null},{"path":[20,1,2,3,2],"name":"סך הכל","pathDesc":null},{"path":[20,1,2,3,981],"name":"קטלניות","pathDesc":null},{"path":[20,1,2,3,982],"name":"קשות","pathDesc":null},{"path":[20,1,2,3,983],"name":"קלות","pathDesc":null},{"path":[20,1,2,4,2],"name":"סך הכל","pathDesc":null},{"path":[20,1,2,4,981],"name":"קטלניות","pathDesc":null},{"path":[20,1,2,4,982],"name":"קשות","pathDesc":null},{"path":[20,1,2,4,983],"name":"קלות","pathDesc":null},{"path":[20,1,2,5,2],"name":"סך הכל","pathDesc":null},{"path":[20,1,2,5,981],"name":"קטלניות","pathDesc":null},{"path":[20,1,2,5,982],"name":"קשות","pathDesc":null},{"path":[20,1,2,5,983],"name":"קלות","pathDesc":null},{"path":[20,1,2,6,2],"name":"סך הכל","pathDesc":null},{"path":[20,1,2,6,981],"name":"קטלניות","pathDesc":null},{"path":[20,1,2,6,982],"name":"קשות","pathDesc":null},{"path":[20,1,2,6,983],"name":"קלות","pathDesc":null},{"path":[20,2,1,1,2],"name":"סך הכל","pathDesc":null},{"path":[20,2,1,1,984],"name":"פצועים קל","pathDesc":null},{"path":[20,2,1,1,985],"name":"הרוגים","pathDesc":null},{"path":[20,2,1,1,986],"name":"פצועים קשה","pathDesc":null},{"path":[20,2,1,2,2],"name":"סך הכל","pathDesc":null},{"path":[20,2,1,2,984],"name":"פצועים קל","pathDesc":null},{"path":[20,2,1,2,985],"name":"הרוגים","pathDesc":null},{"path":[20,2,1,2,986],"name":"פצועים קשה","pathDesc":null},{"path":[20,2,1,3,2],"name":"סך הכל","pathDesc":null},{"path":[20,2,1,3,984],"name":"פצועים קל","pathDesc":null},{"path":[20,2,1,3,985],"name":"הרוגים","pathDesc":null},{"path":[20,2,1,3,986],"name":"פצועים קשה","pathDesc":null},{"path":[20,2,1,4,2],"name":"סך הכל","pathDesc":null},{"path":[20,2,1,4,984],"name":"פצועים קל","pathDesc":null},{"path":[20,2,1,4,985],"name":"הרוגים","pathDesc":null},{"path":[20,2,1,4,986],"name":"פצועים קשה","pathDesc":null},{"path":[20,2,1,5,2],"name":"סך הכל","pathDesc":null},{"path":[20,2,1,5,984],"name":"פצועים קל","pathDesc":null},{"path":[20,2,1,5,985],"name":"הרוגים","pathDesc":null},{"path":[20,2,1,5,986],"name":"פצועים קשה","pathDesc":null},{"path":[20,2,1,6,2],"name":"סך הכל","pathDesc":null},{"path":[20,2,1,6,984],"name":"פצועים קל","pathDesc":null},{"path":[20,2,1,6,985],"name":"הרוגים","pathDesc":null},{"path":[20,2,1,6,986],"name":"פצועים קשה","pathDesc":null},{"path":[20,2,1,7,2],"name":"סך הכל","pathDesc":null},{"path":[20,2,2,1,984],"name":"פצועים קל","pathDesc":null},{"path":[20,2,2,1,985],"name":"הרוגים","pathDesc":null},{"path":[20,2,2,1,986],"name":"פצועים קשה","pathDesc":null},{"path":[20,2,2,2,2],"name":"סך הכל","pathDesc":null},{"path":[20,2,2,2,984],"name":"פצועים קל","pathDesc":null},{"path":[20,2,2,2,985],"name":"הרוגים","pathDesc":null},{"path":[20,2,2,2,986],"name":"פצועים קשה","pathDesc":null},{"path":[20,2,2,3,2],"name":"סך הכל","pathDesc":null},{"path":[20,2,2,3,984],"name":"פצועים קל","pathDesc":null},{"path":[20,2,2,3,985],"name":"הרוגים","pathDesc":null},{"path":[20,2,2,3,986],"name":"פצועים קשה","pathDesc":null},{"path":[20,2,2,4,2],"name":"סך הכל","pathDesc":null},{"path":[20,2,2,4,984],"name":"פצועים קל","pathDesc":null},{"path":[20,2,2,4,985],"name":"הרוגים","pathDesc":null},{"path":[20,2,2,4,986],"name":"פצועים קשה","pathDesc":null},{"path":[20,2,2,5,2],"name":"סך הכל","pathDesc":null},{"path":[20,2,2,5,984],"name":"פצועים קל","pathDesc":null},{"path":[20,2,2,5,985],"name":"הרוגים","pathDesc":null},{"path":[20,2,2,5,986],"name":"פצועים קשה","pathDesc":null},{"path":[20,2,2,6,984],"name":"פצועים קל","pathDesc":null},{"path":[20,2,2,6,985],"name":"הרוגים","pathDesc":null},{"path":[20,2,2,6,986],"name":"פצועים קשה","pathDesc":null},{"path":[20,2,3,1,2],"name":"סך הכל","pathDesc":null},{"path":[20,2,3,1,984],"name":"פצועים קל","pathDesc":null},{"path":[20,2,3,1,985],"name":"הרוגים","pathDesc":null},{"path":[20,2,3,1,986],"name":"פצועים קשה","pathDesc":null},{"path":[20,2,3,2,2],"name":"סך הכל","pathDesc":null},{"path":[20,2,3,2,984],"name":"פצועים קל","pathDesc":null},{"path":[20,2,3,2,985],"name":"הרוגים","pathDesc":null},{"path":[20,2,3,2,986],"name":"פצועים קשה","pathDesc":null},{"path":[20,2,3,3,2],"name":"סך הכל","pathDesc":null},{"path":[20,2,3,3,984],"name":"פצועים קל","pathDesc":null},{"path":[20,2,3,3,985],"name":"הרוגים","pathDesc":null}],"level":5,"paging":{"total_items":189,"page_size":100,"current_page":1,"last_page":2,"first_url":"https://apis.cbs.gov.il//series/catalog/path/?Page=1&PageSize=100&id=20&format=json&download=true&path=20,1,1,null,963&name=כל התאונות&pathDesc=null","previous_url":null,"current_url":"https://apis.cbs.gov.il//series/catalog/path/?Page=1&PageSize=100&id=20&format=json&download=true&path=20,1,1,null,963&name=כל התאונות&pathDesc=null","next_url":"https://apis.cbs.gov.il//series/catalog/path/?Page=2&PageSize=100&id=20&format=json&download=true&path=20,1,1,null,963&name=כל התאונות&pathDesc=null","last_url":"https://apis.cbs.gov.il//series/catalog/path/?Page=2&PageSize=100&id=20&format=json&download=true&path=20,1,1,null,963&name=כל התאונות&pathDesc=null","base_url":null}}}